<svg width="16" height="16" viewBox="0 0 16 16" fill="none" xmlns="http://www.w3.org/2000/svg">
<path d="M6.3001 12.3L3.6001 9.60005L11.6001 1.60005C12.0001 1.20005 12.6001 1.20005 13.0001 1.60005L14.3001 3.00005C14.7001 3.40005 14.7001 4.00005 14.3001 4.40005L6.3001 12.3Z" fill="white"/>
<path d="M1 15L2.3 11L5 13.7L1 15Z" fill="white"/>
<path d="M6.5 14C6.5 14 12.5 14 13 14C13.5 14 15 14.5 15 15H5L6.5 14Z" fill="white" fill-opacity="0.5"/>
</svg>
