<svg width="16" height="16" viewBox="0 0 16 16" fill="none" xmlns="http://www.w3.org/2000/svg">
<path d="M8 4L6.33 2.33C6.12 2.12 5.83 2 5.54 2H1.12C0.5 2 0 2.5 0 3.12V4H8Z" fill="white"/>
<path d="M0 5V12.88C0 13.5 0.5 14 1.12 14H14.88C15.5 14 16 13.5 16 12.88V6.12C16 5.5 15.5 5 14.88 5H0Z" fill="white"/>
</svg>
