<svg width="16" height="16" viewBox="0 0 16 16" fill="none" xmlns="http://www.w3.org/2000/svg">
<path d="M15 13H1V10H0V14H16V10H15V13Z" fill="white"/>
<path d="M0 2V6H1V3H15V6H16V2H0Z" fill="white"/>
<path opacity="0.5" d="M13 5H3V11H13V5Z" fill="white"/>
</svg>
