<svg width="7" height="7" viewBox="0 0 7 7" fill="none" xmlns="http://www.w3.org/2000/svg">
<path fill-rule="evenodd" clip-rule="evenodd" d="M7 0V7H0L5 5L7 0Z" fill="white" fill-opacity="0.4"/>
</svg>
